…
\linespread{1}

```r
rawData <- janitor::clean_names(rawData)
rawData
```



\linespread{1}

```
#> # A tibble: 511 x 11
#>    city  state country cost_~1   cli rent_~2 groce~3 resta~4
#>    <chr> <chr> <chr>     <dbl> <dbl>   <dbl>   <dbl>   <dbl>
#>  1 Zuri~ <NA>  Switze~   109.   150.    66.8    164.    141.
#>  2 Hami~ <NA>  Bermuda   133.   148.   118.     145.    153.
#>  3 Zug   <NA>  Switze~   106.   143.    67.4    148.    143.
#>  4 Gene~ <NA>  Switze~   107.   142.    70.2    147.    139.
#>  5 Basel <NA>  Switze~    97.5  142.    51.5    150.    132.
#>  6 Bern  <NA>  Switze~    91.1  136.    45.3    146.    122.
#>  7 Laus~ <NA>  Switze~    93.6  131.    54.6    137.    128.
#>  8 Reyk~ <NA>  Iceland    93.9  131.    55.9    128.    141.
#>  9 Luga~ <NA>  Switze~    88.6  124.    51.7    121.    128.
#> 10 Stav~ <NA>  Norway     77.8  117.    37.4    108.    143.
#> # ... with 501 more rows, 3 more variables:
#> #   local_purchasing_power_index <dbl>,
#> #   leverage_model_1 <dbl>, leverage_model_2 <dbl>, and
#> #   abbreviated variable names
#> #   1: cost_of_living_plus_rent_index, 2: rent_index,
#> #   3: groceries_index, 4: restaurant_price_index
```
…
colnames(manipulatedData)[1] <- "region"

world <- map_data("world")
worldSubset <- left_join(manipulatedData, world, by="region")
worldSubset
```



\linespread{1}

```
#> # A tibble: 66,008 x 7
#>    region  average  long   lat group order subregion
#>    <chr>     <dbl> <dbl> <dbl> <dbl> <int> <chr>    
#>  1 Albania    24.4  20.1  42.5     6   770 <NA>     
#>  2 Albania    24.4  20.1  42.5     6   771 <NA>     
#>  3 Albania    24.4  20.2  42.4     6   772 <NA>     
#>  4 Albania    24.4  20.2  42.3     6   773 <NA>     
#>  5 Albania    24.4  20.3  42.3     6   774 <NA>     
#>  6 Albania    24.4  20.4  42.3     6   775 <NA>     
#>  7 Albania    24.4  20.5  42.2     6   776 <NA>     
#>  8 Albania    24.4  20.5  42.2     6   777 <NA>     
#>  9 Albania    24.4  20.6  42.0     6   778 <NA>     
#> 10 Albania    24.4  20.6  41.9     6   779 <NA>     
#> # ... with 65,998 more rows
```
…
colnames(dd)[1] <- "region"
colnames(dd)[2] <- "development"

world <- map_data("world")
worldSubset <- left_join(dd, world, by="region")

worldSubset
```



\linespread{1}

```
#> # A tibble: 71,310 x 7
#>    region  development  long   lat group order subregion
#>    <chr>         <dbl> <dbl> <dbl> <dbl> <int> <chr>    
#>  1 Austria           1  17.0  48.6   181  9108 <NA>     
#>  2 Austria           1  16.9  48.6   181  9109 <NA>     
#>  3 Austria           1  16.9  48.6   181  9110 <NA>     
#>  4 Austria           1  16.9  48.5   181  9111 <NA>     
#>  5 Austria           1  16.9  48.4   181  9112 <NA>     
#>  6 Austria           1  16.9  48.4   181  9113 <NA>     
#>  7 Austria           1  17.0  48.2   181  9114 <NA>     
#>  8 Austria           1  17.1  48.1   181  9115 <NA>     
#>  9 Austria           1  17.1  48.0   181  9116 <NA>     
#> 10 Austria           1  17.1  48.0   181  9117 <NA>     
#> # ... with 71,300 more rows
```
…
\linespread{1}

```r
rawData <- janitor::clean_names(rawData)
rawData
```



\linespread{1}

```
#> # A tibble: 511 x 11
#>    city  state country cost_~1   cli rent_~2 groce~3 resta~4
#>    <chr> <chr> <chr>     <dbl> <dbl>   <dbl>   <dbl>   <dbl>
#>  1 Zuri~ <NA>  Switze~   109.   150.    66.8    164.    141.
#>  2 Hami~ <NA>  Bermuda   133.   148.   118.     145.    153.
#>  3 Zug   <NA>  Switze~   106.   143.    67.4    148.    143.
#>  4 Gene~ <NA>  Switze~   107.   142.    70.2    147.    139.
#>  5 Basel <NA>  Switze~    97.5  142.    51.5    150.    132.
#>  6 Bern  <NA>  Switze~    91.1  136.    45.3    146.    122.
#>  7 Laus~ <NA>  Switze~    93.6  131.    54.6    137.    128.
#>  8 Reyk~ <NA>  Iceland    93.9  131.    55.9    128.    141.
#>  9 Luga~ <NA>  Switze~    88.6  124.    51.7    121.    128.
#> 10 Stav~ <NA>  Norway     77.8  117.    37.4    108.    143.
#> # ... with 501 more rows, 3 more variables:
#> #   local_purchasing_power_index <dbl>,
#> #   leverage_model_1 <dbl>, leverage_model_2 <dbl>, and
#> #   abbreviated variable names
#> #   1: cost_of_living_plus_rent_index, 2: rent_index,
#> #   3: groceries_index, 4: restaurant_price_index
```
…
dd$development[dd$development == "developing"] <- 0.0
dd$country[dd$country == "italy"] <- "Italy"
dd
```



\linespread{1}

```
#> # A tibble: 172 x 2
#>    country    development
#>    <chr>            <dbl>
#>  1 Austria              1
#>  2 Belgium              1
#>  3 Denmark              1
#>  4 Finland              1
#>  5 France               1
#>  6 Germany              1
#>  7 Greece               1
#>  8 Ireland              1
#>  9 Italy                1
#> 10 Luxembourg           1
#> # ... with 162 more rows
```

\linespread{1}

```r

data <- left_join(dd, rawData, by="country")
data
```



\linespread{1}

```
#> # A tibble: 566 x 12
#>    country devel~1 city  state cost_~2   cli rent_~3 groce~4
#>    <chr>     <dbl> <chr> <chr>   <dbl> <dbl>   <dbl>   <dbl>
#>  1 Austria       1 Linz  <NA>     58.8  88.4    28.3    86.6
#>  2 Austria       1 Vien~ <NA>     54.2  76.0    31.7    72.4
#>  3 Austria       1 Graz  <NA>     49.4  75.0    23.0    72.6
#>  4 Belgium       1 Antw~ <NA>     56.9  86.2    26.6    79.6
#>  5 Belgium       1 Gent  <NA>     55.8  85.3    25.3    77.1
#>  6 Belgium       1 Leuv~ <NA>     56.5  84.4    27.8    85.5
#>  7 Belgium       1 Brus~ <NA>     58.8  82.7    34.2    74.2
#>  8 Denmark       1 Cope~ <NA>     73.7  97.1    49.6    78.2
#>  9 Denmark       1 Aalb~ <NA>     59.2  92.1    25.3    77.3
#> 10 Denmark       1 Arhus <NA>     59.8  87.1    31.6    67.2
#> # ... with 556 more rows, 4 more variables:
#> #   restaurant_price_index <dbl>,
#> #   local_purchasing_power_index <dbl>,
#> #   leverage_model_1 <dbl>, leverage_model_2 <dbl>, and
#> #   abbreviated variable names 1: development,
#> #   2: cost_of_living_plus_rent_index, 3: rent_index,
#> #   4: groceries_index
```
…
```r

data$development[data$development == 1.0] <- "developed"
data$development[data$development == 0.0] <- "developing"
data
```



\linespread{1}

```
#> # A tibble: 566 x 12
#>    country devel~1 city  state cost_~2   cli rent_~3 groce~4
#>    <chr>   <chr>   <chr> <chr>   <dbl> <dbl>   <dbl>   <dbl>
#>  1 Austria develo~ Linz  <NA>     58.8  88.4    28.3    86.6
#>  2 Austria develo~ Vien~ <NA>     54.2  76.0    31.7    72.4
#>  3 Austria develo~ Graz  <NA>     49.4  75.0    23.0    72.6
#>  4 Belgium develo~ Antw~ <NA>     56.9  86.2    26.6    79.6
#>  5 Belgium develo~ Gent  <NA>     55.8  85.3    25.3    77.1
#>  6 Belgium develo~ Leuv~ <NA>     56.5  84.4    27.8    85.5
#>  7 Belgium develo~ Brus~ <NA>     58.8  82.7    34.2    74.2
#>  8 Denmark develo~ Cope~ <NA>     73.7  97.1    49.6    78.2
#>  9 Denmark develo~ Aalb~ <NA>     59.2  92.1    25.3    77.3
#> 10 Denmark develo~ Arhus <NA>     59.8  87.1    31.6    67.2
#> # ... with 556 more rows, 4 more variables:
#> #   restaurant_price_index <dbl>,
#> #   local_purchasing_power_index <dbl>,
#> #   leverage_model_1 <dbl>, leverage_model_2 <dbl>, and
#> #   abbreviated variable names 1: development,
#> #   2: cost_of_living_plus_rent_index, 3: rent_index,
#> #   4: groceries_index
```
…
